[
    {
        "database": "postgres",
        "index": "purchases",
        "nodes": {
            "table": "purchases",
            "schema": "public",
            "columns": [],
            "transform": {
                "mapping": {
                    "id": {
                        "type": "long"
                    }
                }
            },"children": [
                {
                    "table": "regular_customers",
                    "schema": "public",
                    "columns": [],
                    "transform": {
                        "mapping": {
                            "id": {
                                "type": "long"
                            },
                            "first_name": {
                                "type": "keyword"
                            },
                            "last_name": {
                                "type": "keyword"
                            },
                            "patronymic": {
                                "type": "keyword"
                            }
                        }
                    },
                    "relationship": {
                        "variant": "object",
                        "type": "one_to_many"
                    }
                },
                {
                    "table": "shops",
                    "schema": "public",
                    "columns": [],
                    "transform": {
                        "mapping": {
                            "id": {
                                "type": "keyword"
                            },
                            "name": {
                                "type": "keyword"
                            }
                        }
                    },
                    "relationship": {
                        "variant": "object",
                        "type": "one_to_many"
                    }
                },
                {
                    "table": "products",
                    "schema": "public",
                    "columns": [],
                    "transform": {
                        "mapping": {
                            "id": {
                                "type": "long"
                            },
                            "name": {
                                "type": "text"
                            },
                            "price": {
                                "type": "long"
                            }
                        }
                    },
                    "relationship": {
                        "variant": "object",
                        "type": "one_to_many",
                        "through_tables": ["purchases_to_products"]
                    }
                }
            ]
        }
    },
    {
        "database": "postgres",
        "index": "employees",
        "nodes": {
            "table": "employees",
            "schema": "public",
            "columns": [],
            "transform": {
                "mapping": {
                    "id": {
                        "type": "long"
                    },
                    "first_name": {
                        "type": "keyword"
                    },
                    "last_name": {
                        "type": "keyword"
                    },
                    "patronymic": {
                        "type": "keyword"
                    },
                    "education": {
                        "type": "nested",
                        "properties": {
                            "name": {
                                "type": "keyword"
                            },
                            "completion_date": {
                                "type": "long"
                            },
                            "degree": {
                                "type": "keyword"
                            }
                        }
                    }
                }
            },"children": [
                {
                    "table": "shops",
                    "schema": "public",
                    "columns": [],
                    "transform": {
                        "mapping": {
                            "id": {
                                "type": "keyword"
                            },
                            "name": {
                                "type": "keyword"
                            }
                        }
                    },
                    "relationship": {
                        "variant": "object",
                        "type": "one_to_many"
                    }
                }
            ]
        }
    },
    {
        "database": "postgres",
        "index": "regular_customers",
        "nodes": {
            "table": "regular_customers",
            "schema": "public",
            "columns": [],
            "transform": {
                "mapping": {
                    "id": {
                        "type": "long"
                    },
                    "first_name": {
                        "type": "keyword"
                    },
                    "last_name": {
                        "type": "keyword"
                    },
                    "patronymic": {
                        "type": "keyword"
                    }
                }
            },"children": [
                {
                    "table": "purchases",
                    "schema": "public",
                    "columns": [],
                    "transform": {
                        "mapping": {
                            "id": {
                                "type": "long"
                            }
                        }
                    },
                    "relationship": {
                        "variant": "object",
                        "type": "one_to_many"
                    }
                }
            ]
        }
    },
    {
        "database": "postgres",
        "index": "suppliers",
        "nodes": {
            "table": "suppliers",
            "schema": "public",
            "columns": [],
            "transform": {
                "mapping": {
                    "id": {
                        "type": "long"
                    },
                    "name": {
                        "type": "keyword"
                    },
                    "city": {
                        "type": "keyword"
                    }
                }
            },"children": [
                {
                    "table": "products",
                    "schema": "public",
                    "columns": [],
                    "transform": {
                        "mapping": {
                            "id": {
                                "type": "long"
                            },
                            "name": {
                                "type": "keyword"
                            },
                            "price": {
                                "type": "long"
                            }
                        }
                    },
                    "relationship": {
                        "variant": "object",
                        "type": "one_to_many"
                    }
                }
            ]
        }
    },
    {
        "database": "postgres",
        "index": "products",
        "setting": {
            "analysis": {
                "filter": {
                    "products_ngram_filter": {
                        "type": "edge_ngram",
                        "min_gram": 1,
                        "max_gram": 7
                    }
                },
                "analyzer": {
                    "products_ngram_analyzer": {
                        "type": "custom",
                        "tokenizer": "standard",
                        "filter": [
                            "lowercase",
                            "products_ngram_filter"
                        ]
                    }
                }
            }    
        },
        "nodes": {
            "table": "products",
            "schema": "public",
            "columns": [],
            "transform": {
                "mapping": {
                    "id": {
                        "type": "long"
                    },
                    "name": {
                        "type": "text",
                        "analyzer": "products_ngram_analyzer"
                    },
                    "price": {
                        "type": "long"
                    }
                }
            },
            "children": [
                {
                    "table": "suppliers",
                    "schema": "public",
                    "columns": [],
                    "transform": {
                        "mapping": {
                            "id": {
                                "type": "long"
                            },
                            "name": {
                                "type": "keyword"
                            },
                            "city": {
                                "type": "keyword"
                            }
                        }
                    },
                    "relationship": {
                        "variant": "object",
                        "type": "one_to_many"
                    }
                },
                {
                    "table": "shops",
                    "schema": "public",
                    "columns": [],
                    "transform": {
                        "mapping": {
                            "id": {
                                "type": "keyword"
                            },
                            "name": {
                                "type": "keyword"
                            }
                        }
                    },
                    "relationship": {
                        "variant": "object",
                        "type": "one_to_many",
                        "through_tables": ["products_to_shops"]
                    }
                },
                {
                    "table": "purchases",
                    "schema": "public",
                    "columns": [],
                    "transform": {
                        "mapping": {
                            "id": {
                                "type": "long"
                            }
                        }
                    },
                    "relationship": {
                        "variant": "object",
                        "type": "one_to_many",
                        "through_tables": ["purchases_to_products"]
                    }
                }
            ]
        }
    },
    {
        "database": "postgres",
        "index": "shops",
        "nodes": {
            "table": "shops",
            "schema": "public",
            "columns": [],
            "transform": {
                "mapping": {
                    "id": {
                        "type": "keyword"
                    },
                    "name": {
                        "type": "keyword"
                    }
                }
            },"children": [
                {
                    "table": "employees",
                    "schema": "public",
                    "columns": [],
                    "transform": {
                        "mapping": {
                            "id": {
                                "type": "long"
                            },
                            "first_name": {
                                "type": "keyword"
                            },
                            "last_name": {
                                "type": "keyword"
                            },
                            "patronymic": {
                                "type": "keyword"
                            },
                            "education": {
                                "type": "nested",
                                "properties": {
                                    "name": {
                                        "type": "keyword"
                                    },
                                    "completion_date": {
                                        "type": "long"
                                    },
                                    "degree": {
                                        "type": "keyword"
                                    }
                                }
                            }
                        }
                    },
                    "relationship": {
                        "variant": "object",
                        "type": "one_to_many"
                    }
                },
                {
                    "table": "products",
                    "schema": "public",
                    "columns": [],
                    "transform": {
                        "mapping": {
                            "id": {
                                "type": "long"
                            },
                            "name": {
                                "type": "text"
                            },
                            "price": {
                                "type": "long"
                            }
                        }
                    },
                    "relationship": {
                        "variant": "object",
                        "type": "one_to_many",
                        "through_tables": ["products_to_shops"]
                    }
                },           
                {
                    "table": "purchases",
                    "schema": "public",
                    "columns": [],
                    "transform": {
                        "mapping": {
                            "id": {
                                "type": "long"
                            }
                        }
                    },
                    "relationship": {
                        "variant": "object",
                        "type": "one_to_many"
                    }
                }
            ]
        }
    }
]
